---
title: "R Notebook"
output: html_notebook
---

To retrieve the R code dataset,

```{r eval=FALSE}
pins::pin_get("rmds", "https://raw.githubusercontent.com/javierluraschi/rmds/datasets/")
```
```
# A tibble: 31,862 x 3
   source url                                             code                                          
 * <chr>  <chr>                                           <chr>                                         
 1 github https://api.github.com/repositories/190506453/… "knitr::opts_chunk$set(echo = TRUE, message=F…
 2 github https://api.github.com/repositories/169325434/… "knitr::opts_chunk$set(eval = FALSE)\n\ninsta…
 3 github https://api.github.com/repositories/169325434/… "knitr::opts_chunk$set(eval = FALSE)\n\ninsta…
 4 github https://api.github.com/repositories/127330289/… "options(htmltools.dir.version = FALSE)\n\nkn…
 5 github https://api.github.com/repositories/140599161/… "  knitr::opts_chunk$set(echo = FALSE)\n"     
 6 github https://api.github.com/repositories/122732852/… ""                                            
 7 github https://api.github.com/repositories/79351870/c… "options(htmltools.dir.version = FALSE)\n\n# …
 8 github https://api.github.com/repositories/74144348/c… "# installing 'devtools' package for installi…
 9 github https://api.github.com/repositories/140599161/… "  knitr::opts_chunk$set(echo = TRUE, eval = …
10 github https://api.github.com/repositories/143641107/… "library(greta)\n\n# data\nN <- letters[1:8]\…
# … with 31,852 more rows
```
