…
``` r
ngram_size <- 3
ngram_model <- ngram::ngram(train_code, n = ngram_size, sep = " ") %>% print()
```

    ## An ngram object with 5030518 3-grams

And retrieve the phrase
table,

``` r
ngram_table <- ngram::get.phrasetable(ngram_model) %>% tibble::as_tibble() %>% print()
```

    ## # A tibble: 5,030,518 x 3
    ##    ngrams               freq    prop
    ##    <chr>               <int>   <dbl>
    ##  1 ") <eol> <eol> "   229387 0.00902
    ##  2 ") ) <eol> "       203483 0.00801
    ##  3 "= c ( "           118805 0.00467
    ##  4 ") , <eol> "       106557 0.00419
    ##  5 ") %>% <eol> "      88105 0.00347
    ##  6 ") + <eol> "        67994 0.00267
    ##  7 "<eol> library ( "  60861 0.00239
    ##  8 "= TRUE ) "         54134 0.00213
    ##  9 "<eol> <eol> # "    50485 0.00199
    ## 10 "<eol> data ( "     49820 0.00196
    ## # … with 5,030,508 more rows
…
    ## Correct: 300
    ## Incorrect: 2874646
    ## Accuracy: 0.000104360676062374

A few examples of correct completions,

``` r
tibble::tibble(correct = token_correct)
```

    ## # A tibble: 300 x 1
    ##    correct               
    ##    <chr>                 
    ##  1 "<sof> knitr :: "     
    ##  2 "knitr :: opts_chunk "
    ##  3 ":: opts_chunk $ "    
    ##  4 "opts_chunk $ set "   
    ##  5 "$ set ( "            
    ##  6 "set ( echo "         
    ##  7 "( echo = "           
    ##  8 "echo = TRUE "        
    ##  9 ", message = "        
    ## 10 "message = FALSE "    
    ## # … with 290 more rows

A few examples of incorrect completions,

``` r
tibble::tibble(incorrect = token_incorrect)
```

    ## # A tibble: 272 x 1
    ##    incorrect       
    ##    <chr>           
    ##  1 "= TRUE ) "     
    ##  2 "TRUE , <eol> " 
    ##  3 "= FALSE ) "    
    ##  4 "FALSE , <eol> "
    ##  5 "= FALSE ) "    
    ##  6 ", <eol> data " 
    ##  7 "comment = NA " 
    ##  8 "= \"\" ) "     
    ##  9 "\"\" , <eol> " 
    ## 10 "digits = 2 "   
    ## # … with 262 more rows
